
Waiting for...
P1 = 400 x 120 pixels
===========================

Icons...
P2 = 400 x 253 pixels
===========================

Mic + On/Off
P4 = 400 x 99 pixels

P3 (a) 024 x 99 pixels
P3 (b) 252 x 48 pixels + (INSERT PULLDOWN HERE) + (c) 124 x 99 pixels
P3 (d) 252 x 27 pixels
===========================

Fluent + Version
P4 = 400 x 53 pixels
===========================



400 x (120 + 253 + 99 + 53) = 400 x 525